{
  "division": 256,
  "format": 1,
  "tracks": [
    [{
      "timeSignature": {
        "denominator": 4,
        "metronome": 24,
        "numerator": 4,
        "thirtyseconds": 8
      },
      "delta": 0
    }, {
      "keySignature": {
        "key": 0,
        "scale": 1
      },
      "delta": 0
    }, {
      "setTempo": {
        "microsecondsPerBeat": 500000
      },
      "delta": 0
    }, {
      "endOfTrack": true,
      "delta": 1
    }],
    [{
      "programChange": {
        "programNumber": 0
      },
      "channel": 0,
      "delta": 0
    }, {
      "controlChange": {
        "type": 121,
        "value": 0
      },
      "channel": 0,
      "delta": 0
    }, {
      "controlChange": {
        "type": 64,
        "value": 0
      },
      "channel": 0,
      "delta": 0
    }, {
      "controlChange": {
        "type": 91,
        "value": 48
      },
      "channel": 0,
      "delta": 0
    }, {
      "controlChange": {
        "type": 10,
        "value": 51
      },
      "channel": 0,
      "delta": 0
    }, {
      "controlChange": {
        "type": 7,
        "value": 100
      },
      "channel": 0,
      "delta": 0
    }, {
      "controlChange": {
        "type": 121,
        "value": 0
      },
      "channel": 0,
      "delta": 0
    }, {
      "controlChange": {
        "type": 64,
        "value": 0
      },
      "channel": 0,
      "delta": 0
    }, {
      "controlChange": {
        "type": 91,
        "value": 48
      },
      "channel": 0,
      "delta": 0
    }, {
      "controlChange": {
        "type": 10,
        "value": 51
      },
      "channel": 0,
      "delta": 0
    }, {
      "controlChange": {
        "type": 7,
        "value": 100
      },
      "channel": 0,
      "delta": 0
    }, {
      "trackName": "Piano",
      "delta": 0
    }, {
      "noteOn": {
        "noteNumber": 48,
        "velocity": 93
      },
      "channel": 0,
      "delta": 0
    }, {
      "noteOn": {
        "noteNumber": 52,
        "velocity": 93
      },
      "channel": 0,
      "delta": 0
    }, {
      "noteOn": {
        "noteNumber": 59,
        "velocity": 93
      },
      "channel": 0,
      "delta": 0
    }, {
      "noteOff": {
        "noteNumber": 48,
        "velocity": 0
      },
      "channel": 0,
      "delta": 256
    }, {
      "noteOff": {
        "noteNumber": 52,
        "velocity": 0
      },
      "channel": 0,
      "delta": 0
    }, {
      "noteOff": {
        "noteNumber": 59,
        "velocity": 0
      },
      "channel": 0,
      "delta": 0
    }, {
      "noteOn": {
        "noteNumber": 48,
        "velocity": 104
      },
      "channel": 0,
      "delta": 0
    }, {
      "noteOn": {
        "noteNumber": 52,
        "velocity": 104
      },
      "channel": 0,
      "delta": 0
    }, {
      "noteOn": {
        "noteNumber": 59,
        "velocity": 104
      },
      "channel": 0,
      "delta": 0
    }, {
      "noteOff": {
        "noteNumber": 48,
        "velocity": 0
      },
      "channel": 0,
      "delta": 256
    }, {
      "noteOff": {
        "noteNumber": 52,
        "velocity": 0
      },
      "channel": 0,
      "delta": 0
    }, {
      "noteOff": {
        "noteNumber": 59,
        "velocity": 0
      },
      "channel": 0,
      "delta": 0
    }, {
      "noteOn": {
        "noteNumber": 48,
        "velocity": 105
      },
      "channel": 0,
      "delta": 0
    }, {
      "noteOn": {
        "noteNumber": 52,
        "velocity": 105
      },
      "channel": 0,
      "delta": 0
    }, {
      "noteOn": {
        "noteNumber": 59,
        "velocity": 105
      },
      "channel": 0,
      "delta": 0
    }, {
      "noteOff": {
        "noteNumber": 48,
        "velocity": 0
      },
      "channel": 0,
      "delta": 256
    }, {
      "noteOff": {
        "noteNumber": 52,
        "velocity": 0
      },
      "channel": 0,
      "delta": 0
    }, {
      "noteOff": {
        "noteNumber": 59,
        "velocity": 0
      },
      "channel": 0,
      "delta": 0
    }, {
      "noteOn": {
        "noteNumber": 48,
        "velocity": 101
      },
      "channel": 0,
      "delta": 0
    }, {
      "noteOn": {
        "noteNumber": 52,
        "velocity": 101
      },
      "channel": 0,
      "delta": 0
    }, {
      "noteOn": {
        "noteNumber": 59,
        "velocity": 101
      },
      "channel": 0,
      "delta": 0
    }, {
      "noteOff": {
        "noteNumber": 48,
        "velocity": 0
      },
      "channel": 0,
      "delta": 256
    }, {
      "noteOff": {
        "noteNumber": 52,
        "velocity": 0
      },
      "channel": 0,
      "delta": 0
    }, {
      "noteOff": {
        "noteNumber": 59,
        "velocity": 0
      },
      "channel": 0,
      "delta": 0
    }, {
      "noteOn": {
        "noteNumber": 52,
        "velocity": 102
      },
      "channel": 0,
      "delta": 0
    }, {
      "noteOn": {
        "noteNumber": 53,
        "velocity": 102
      },
      "channel": 0,
      "delta": 0
    }, {
      "noteOn": {
        "noteNumber": 57,
        "velocity": 102
      },
      "channel": 0,
      "delta": 0
    }, {
      "noteOff": {
        "noteNumber": 52,
        "velocity": 0
      },
      "channel": 0,
      "delta": 256
    }, {
      "noteOff": {
        "noteNumber": 53,
        "velocity": 0
      },
      "channel": 0,
      "delta": 0
    }, {
      "noteOff": {
        "noteNumber": 57,
        "velocity": 0
      },
      "channel": 0,
      "delta": 0
    }, {
      "noteOn": {
        "noteNumber": 52,
        "velocity": 104
      },
      "channel": 0,
      "delta": 0
    }, {
      "noteOn": {
        "noteNumber": 53,
        "velocity": 104
      },
      "channel": 0,
      "delta": 0
    }, {
      "noteOn": {
        "noteNumber": 57,
        "velocity": 104
      },
      "channel": 0,
      "delta": 0
    }, {
      "noteOff": {
        "noteNumber": 52,
        "velocity": 0
      },
      "channel": 0,
      "delta": 256
    }, {
      "noteOff": {
        "noteNumber": 53,
        "velocity": 0
      },
      "channel": 0,
      "delta": 0
    }, {
      "noteOff": {
        "noteNumber": 57,
        "velocity": 0
      },
      "channel": 0,
      "delta": 0
    }, {
      "noteOn": {
        "noteNumber": 52,
        "velocity": 105
      },
      "channel": 0,
      "delta": 0
    }, {
      "noteOn": {
        "noteNumber": 53,
        "velocity": 105
      },
      "channel": 0,
      "delta": 0
    }, {
      "noteOn": {
        "noteNumber": 57,
        "velocity": 105
      },
      "channel": 0,
      "delta": 0
    }, {
      "noteOff": {
        "noteNumber": 52,
        "velocity": 0
      },
      "channel": 0,
      "delta": 256
    }, {
      "noteOff": {
        "noteNumber": 53,
        "velocity": 0
      },
      "channel": 0,
      "delta": 0
    }, {
      "noteOff": {
        "noteNumber": 57,
        "velocity": 0
      },
      "channel": 0,
      "delta": 0
    }, {
      "noteOn": {
        "noteNumber": 52,
        "velocity": 107
      },
      "channel": 0,
      "delta": 0
    }, {
      "noteOn": {
        "noteNumber": 53,
        "velocity": 107
      },
      "channel": 0,
      "delta": 0
    }, {
      "noteOn": {
        "noteNumber": 57,
        "velocity": 107
      },
      "channel": 0,
      "delta": 0
    }, {
      "noteOff": {
        "noteNumber": 52,
        "velocity": 0
      },
      "channel": 0,
      "delta": 256
    }, {
      "noteOff": {
        "noteNumber": 53,
        "velocity": 0
      },
      "channel": 0,
      "delta": 0
    }, {
      "noteOff": {
        "noteNumber": 57,
        "velocity": 0
      },
      "channel": 0,
      "delta": 0
    }, {
      "noteOn": {
        "noteNumber": 48,
        "velocity": 102
      },
      "channel": 0,
      "delta": 0
    }, {
      "noteOn": {
        "noteNumber": 52,
        "velocity": 102
      },
      "channel": 0,
      "delta": 0
    }, {
      "noteOn": {
        "noteNumber": 59,
        "velocity": 102
      },
      "channel": 0,
      "delta": 0
    }, {
      "noteOff": {
        "noteNumber": 48,
        "velocity": 0
      },
      "channel": 0,
      "delta": 256
    }, {
      "noteOff": {
        "noteNumber": 52,
        "velocity": 0
      },
      "channel": 0,
      "delta": 0
    }, {
      "noteOff": {
        "noteNumber": 59,
        "velocity": 0
      },
      "channel": 0,
      "delta": 0
    }, {
      "noteOn": {
        "noteNumber": 48,
        "velocity": 98
      },
      "channel": 0,
      "delta": 0
    }, {
      "noteOn": {
        "noteNumber": 52,
        "velocity": 98
      },
      "channel": 0,
      "delta": 0
    }, {
      "noteOn": {
        "noteNumber": 59,
        "velocity": 98
      },
      "channel": 0,
      "delta": 0
    }, {
      "noteOff": {
        "noteNumber": 48,
        "velocity": 0
      },
      "channel": 0,
      "delta": 256
    }, {
      "noteOff": {
        "noteNumber": 52,
        "velocity": 0
      },
      "channel": 0,
      "delta": 0
    }, {
      "noteOff": {
        "noteNumber": 59,
        "velocity": 0
      },
      "channel": 0,
      "delta": 0
    }, {
      "noteOn": {
        "noteNumber": 43,
        "velocity": 104
      },
      "channel": 0,
      "delta": 0
    }, {
      "noteOn": {
        "noteNumber": 53,
        "velocity": 104
      },
      "channel": 0,
      "delta": 0
    }, {
      "noteOn": {
        "noteNumber": 58,
        "velocity": 104
      },
      "channel": 0,
      "delta": 0
    }, {
      "noteOff": {
        "noteNumber": 43,
        "velocity": 0
      },
      "channel": 0,
      "delta": 256
    }, {
      "noteOff": {
        "noteNumber": 53,
        "velocity": 0
      },
      "channel": 0,
      "delta": 0
    }, {
      "noteOff": {
        "noteNumber": 58,
        "velocity": 0
      },
      "channel": 0,
      "delta": 0
    }, {
      "noteOn": {
        "noteNumber": 48,
        "velocity": 114
      },
      "channel": 0,
      "delta": 0
    }, {
      "noteOn": {
        "noteNumber": 52,
        "velocity": 114
      },
      "channel": 0,
      "delta": 0
    }, {
      "noteOn": {
        "noteNumber": 58,
        "velocity": 114
      },
      "channel": 0,
      "delta": 0
    }, {
      "noteOn": {
        "noteNumber": 62,
        "velocity": 114
      },
      "channel": 0,
      "delta": 0
    }, {
      "noteOff": {
        "noteNumber": 48,
        "velocity": 0
      },
      "channel": 0,
      "delta": 256
    }, {
      "noteOff": {
        "noteNumber": 52,
        "velocity": 0
      },
      "channel": 0,
      "delta": 0
    }, {
      "noteOff": {
        "noteNumber": 58,
        "velocity": 0
      },
      "channel": 0,
      "delta": 0
    }, {
      "noteOff": {
        "noteNumber": 62,
        "velocity": 0
      },
      "channel": 0,
      "delta": 0
    }, {
      "noteOn": {
        "noteNumber": 60,
        "velocity": 94
      },
      "channel": 0,
      "delta": 0
    }, {
      "noteOn": {
        "noteNumber": 52,
        "velocity": 94
      },
      "channel": 0,
      "delta": 0
    }, {
      "noteOn": {
        "noteNumber": 53,
        "velocity": 94
      },
      "channel": 0,
      "delta": 0
    }, {
      "noteOn": {
        "noteNumber": 57,
        "velocity": 94
      },
      "channel": 0,
      "delta": 0
    }, {
      "noteOff": {
        "noteNumber": 52,
        "velocity": 0
      },
      "channel": 0,
      "delta": 256
    }, {
      "noteOff": {
        "noteNumber": 53,
        "velocity": 0
      },
      "channel": 0,
      "delta": 0
    }, {
      "noteOff": {
        "noteNumber": 57,
        "velocity": 0
      },
      "channel": 0,
      "delta": 0
    }, {
      "noteOn": {
        "noteNumber": 52,
        "velocity": 103
      },
      "channel": 0,
      "delta": 0
    }, {
      "noteOn": {
        "noteNumber": 53,
        "velocity": 103
      },
      "channel": 0,
      "delta": 0
    }, {
      "noteOn": {
        "noteNumber": 57,
        "velocity": 103
      },
      "channel": 0,
      "delta": 0
    }, {
      "noteOff": {
        "noteNumber": 52,
        "velocity": 0
      },
      "channel": 0,
      "delta": 256
    }, {
      "noteOff": {
        "noteNumber": 53,
        "velocity": 0
      },
      "channel": 0,
      "delta": 0
    }, {
      "noteOff": {
        "noteNumber": 57,
        "velocity": 0
      },
      "channel": 0,
      "delta": 0
    }, {
      "noteOn": {
        "noteNumber": 52,
        "velocity": 108
      },
      "channel": 0,
      "delta": 0
    }, {
      "noteOn": {
        "noteNumber": 53,
        "velocity": 108
      },
      "channel": 0,
      "delta": 0
    }, {
      "noteOn": {
        "noteNumber": 57,
        "velocity": 108
      },
      "channel": 0,
      "delta": 0
    }, {
      "noteOff": {
        "noteNumber": 52,
        "velocity": 0
      },
      "channel": 0,
      "delta": 256
    }, {
      "noteOff": {
        "noteNumber": 53,
        "velocity": 0
      },
      "channel": 0,
      "delta": 0
    }, {
      "noteOff": {
        "noteNumber": 57,
        "velocity": 0
      },
      "channel": 0,
      "delta": 0
    }, {
      "noteOn": {
        "noteNumber": 52,
        "velocity": 105
      },
      "channel": 0,
      "delta": 0
    }, {
      "noteOn": {
        "noteNumber": 53,
        "velocity": 105
      },
      "channel": 0,
      "delta": 0
    }, {
      "noteOn": {
        "noteNumber": 57,
        "velocity": 105
      },
      "channel": 0,
      "delta": 0
    }, {
      "noteOff": {
        "noteNumber": 60,
        "velocity": 0
      },
      "channel": 0,
      "delta": 256
    }, {
      "noteOff": {
        "noteNumber": 52,
        "velocity": 0
      },
      "channel": 0,
      "delta": 0
    }, {
      "noteOff": {
        "noteNumber": 53,
        "velocity": 0
      },
      "channel": 0,
      "delta": 0
    }, {
      "noteOff": {
        "noteNumber": 57,
        "velocity": 0
      },
      "channel": 0,
      "delta": 0
    }, {
      "endOfTrack": true,
      "delta": 1
    }]
  ]
}